{"totalPage":366,"pageSize":4,"totalSize":1461,"start":0,"currentPage":1,"pageIndex":0,"data":[
{"prjid":1003977,"cmpnm":"广西田园生化股份有限公司","prjst":"已问询","stage":20,"boardName":"主板","sprinsts":"国海证券","updtdt":"2026-07-13 00:00:00","acptdt":"2025-06-20 00:00:00"},
{"prjid":1003856,"cmpnm":"深圳市鸿富诚新材料股份有限公司","prjst":"注册生效","stage":40,"boardName":"创业板","sprinsts":"华源证券","updtdt":"2026-07-13 00:00:00","acptdt":"2025-12-26 00:00:00"},
{"prjid":1004102,"cmpnm":"浙江正雅齿科股份有限公司","prjst":"已问询","stage":20,"boardName":"创业板","sprinsts":"中信建投","updtdt":"2026-07-12 00:00:00","acptdt":"2026-06-29 00:00:00"},
{"prjid":1004110,"cmpnm":"宸芯科技股份有限公司","prjst":"已问询","stage":20,"boardName":"创业板","sprinsts":"中信建投","updtdt":"2026-07-12 00:00:00","acptdt":"2026-06-30 00:00:00"}]}
